D:\New folder (4)\tour_booking\tourService\src\main\java\iuh\tourservice\entity\Tour.java
D:\New folder (4)\tour_booking\tourService\src\main\java\iuh\tourservice\repository\TourRepository.java
D:\New folder (4)\tour_booking\tourService\src\main\java\iuh\tourservice\service\TourService.java
D:\New folder (4)\tour_booking\tourService\src\main\java\iuh\tourservice\controllers\TourController.java
D:\New folder (4)\tour_booking\tourService\src\main\java\iuh\tourservice\TourServiceApplication.java
