-------------------------------------------------------------------------------
Test set: iuh.spring.gateway.GatewayApplicationTests
-------------------------------------------------------------------------------
Tests run: 1, Failures: 0, Errors: 0, Skipped: 0, Time elapsed: 11.22 s -- in iuh.spring.gateway.GatewayApplicationTests
